…
Fit a poisson regression model:

``` r
poisson_hi <- glm(formula = target ~ ., family = "poisson", data = X_train_hi_model)
```

Print out fitted model:

``` r
poisson_hi %>%
  broom::tidy()
```

    ## # A tibble: 514 x 5
    ##    term                          estimate    std.error statistic   p.value
    ##    <chr>                            <dbl>        <dbl>     <dbl>     <dbl>
    ##  1 (Intercept)                   -1.23e+3 5.10           -242.   0.       
    ##  2 month                          8.77e-2 0.000427        206.   0.       
    ##  3 year                           6.11e-1 0.00243         251.   0.       
    ##  4 monthly_number_of_sessions     9.80e-3 0.00192           5.09 3.52e-  7
    ##  5 monthly_unique_sessions       -8.87e-2 0.00225         -39.4  0.       
    ##  6 monthly_avg_length_of_session  2.38e-7 0.0000000139     17.2  3.59e- 66
    ##  7 monthly_avg_light_activity    -8.11e-7 0.0000000222    -36.5  7.68e-292
    ##  8 monthly_avg_moderate_activity -2.55e-7 0.0000000371     -6.88 6.03e- 12
    ##  9 monthly_avg_vigorous_activity  1.24e-6 0.0000000585     21.3  3.26e-100
    ## 10 monthly_count_zipline          1.68e+0 0.147            11.4  3.40e- 30
    ## # ... with 504 more rows
…
Fit a poisson regression model:

``` r
poisson_lo <- glm(formula = target ~ ., family = "poisson", data = X_train_lo_model)
```

Print out fitted model:

``` r
poisson_lo %>%
  broom::tidy()
```

    ## # A tibble: 521 x 5
    ##    term                          estimate     std.error statistic  p.value
    ##    <chr>                            <dbl>         <dbl>     <dbl>    <dbl>
    ##  1 (Intercept)                   -6.75e+2 2.87            -235.   0.      
    ##  2 month                          4.81e-2 0.000262         183.   0.      
    ##  3 year                           3.37e-1 0.00142          237.   0.      
    ##  4 monthly_number_of_sessions    -4.83e-1 0.0842            -5.74 9.28e- 9
    ##  5 monthly_unique_sessions        9.82e-3 0.000840          11.7  1.31e-31
    ##  6 monthly_avg_length_of_session  1.64e-8 0.00000000699      2.35 1.87e- 2
    ##  7 monthly_avg_light_activity     2.44e-8 0.0000000123       1.98 4.74e- 2
    ##  8 monthly_avg_moderate_activity -1.08e-7 0.0000000157      -6.90 5.35e-12
    ##  9 monthly_avg_vigorous_activity  7.44e-8 0.0000000212       3.50 4.58e- 4
    ## 10 monthly_count_ramp            -3.36e-1 0.133             -2.52 1.17e- 2
    ## # ... with 511 more rows
…
